Componente,Error
Biomasa aerea de Áreas urbanas e industriales,95
Biomasa aerea de Terrenos agrícolas,75
Biomasa aerea de Pradera,27.7365266062675
Biomasa aerea de Matorral-Pradera,34.6047616118647
Biomasa aerea de Matorral,34.6047616118647
Biomasa aerea de Matorral con suculentas,34.6047616118647
Biomasa aerea de Suculentas,27.7365266062675
Biomasa aerea de Plantación de arbustos,34.6047616118647
Plantaciones,8
Humedales,0
Areas desprovistas de vegetacion,0
Nieves,0
Cuerpos de agua,0
