Región,bosque permanente,otro uso permanente,deforestacion,sustitucion,aumento ,restitucion
Maule,489034.666450009,2542511.97435386,245.047244941623,53.2876138240304,2983.31514060467,84.7166064926177
Bío Bío,847648.10071583,2855089.68056655,1250.55069500003,604.495509197497,4817.09683530218,0
La Araucanía,1005318.06913564,2164072.51749842,3863.16783755823,484.108100513174,3833.02672924832,2775.67564376639
Los Ríos,920503.790995514,903762.372317355,709.884407978269,84.310179171741,9798.03748202715,106.022968432275
Los Lagos,2829864.23701221,1997932.67574312,8666.50944950267,3.442127682421,4258.1471817824,0
