pre,post,0
Urbanas e industriales,Alerce renoval,119.994469008336
Urbanas e industriales,Alerce adulto,119.994469008336
Urbanas e industriales,Cipres de las guaitecas renoval,105.474340201482
Urbanas e industriales,Cipres de las guaitecas adulto,119.994469008336
Urbanas e industriales,Araucaria renoval,119.994469008336
Urbanas e industriales,Araucaria adulto,119.994469008336
Urbanas e industriales,Cipres de la cordillera renoval,105.260813215808
Urbanas e industriales,Cipres de la cordillera adulto,105.976022913949
Urbanas e industriales,Lenga renoval,119.994469008336
Urbanas e industriales,Lenga adulto,116.182164579632
Urbanas e industriales,Coihue de magallanes renoval,105.068626843888
Urbanas e industriales,Coihue de magallanes adulto,105.643092325449
Urbanas e industriales,Roble hualo renoval,105.281579474691
Urbanas e industriales,Roble hualo adulto,106.788585818858
Urbanas e industriales,Roble-rauli-coihue renoval,105.427542334968
Urbanas e industriales,Roble-rauli-coihue adulto,108.658781718021
Urbanas e industriales,Coihue-rauli-tepa renoval,105.189572787646
Urbanas e industriales,Coihue-rauli-tepa adulto,106.775630217449
Urbanas e industriales,Esclerofilo renoval,106.9316892731
Urbanas e industriales,Esclerofilo adulto,109.708854377086
Urbanas e industriales,Siempreverde renoval,105.415999251656
Urbanas e industriales,Siempreverde adulto,107.054005062865
Urbanas e industriales,Matorral arborescente,105.376643047689
Urbanas e industriales,Bosque mixto,108.634544710683
Terrenos agrícolas,Alerce renoval,104.874556459575
Terrenos agrícolas,Alerce adulto,104.874556459575
Terrenos agrícolas,Cipres de las guaitecas renoval,87.8910486963148
Terrenos agrícolas,Cipres de las guaitecas adulto,104.874556459575
Terrenos agrícolas,Araucaria renoval,104.874556459575
Terrenos agrícolas,Araucaria adulto,104.874556459575
Terrenos agrícolas,Cipres de la cordillera renoval,87.6346894719961
Terrenos agrícolas,Cipres de la cordillera adulto,88.4924710506932
Terrenos agrícolas,Lenga renoval,104.874556459575
Terrenos agrícolas,Lenga adulto,100.490274984243
Terrenos agrícolas,Coihue de magallanes renoval,87.4037547640842
Terrenos agrícolas,Coihue de magallanes adulto,88.093489862097
Terrenos agrícolas,Roble hualo renoval,87.6596313971578
Terrenos agrícolas,Roble hualo adulto,89.4639707434877
Terrenos agrícolas,Roble-rauli-coihue renoval,87.834883063572
Terrenos agrícolas,Roble-rauli-coihue adulto,91.688226313112
Terrenos agrícolas,Coihue-rauli-tepa renoval,87.5491074954364
Terrenos agrícolas,Coihue-rauli-tepa adulto,89.4485059033036
Terrenos agrícolas,Esclerofilo renoval,89.6347375228985
Terrenos agrícolas,Esclerofilo adulto,92.9302573370621
Terrenos agrícolas,Siempreverde renoval,87.8210276541172
Terrenos agrícolas,Siempreverde adulto,89.780621517118
Terrenos agrícolas,Matorral arborescente,87.7737825321434
Terrenos agrícolas,Bosque mixto,91.659501986959
Pradera,Alerce renoval,78.3772128923502
Pradera,Alerce adulto,78.3772128923502
Pradera,Cipres de las guaitecas renoval,53.5644597575497
Pradera,Cipres de las guaitecas adulto,78.3772128923502
Pradera,Araucaria renoval,78.3772128923502
Pradera,Araucaria adulto,78.3772128923502
Pradera,Cipres de la cordillera renoval,53.1427672127954
Pradera,Cipres de la cordillera adulto,54.5456903965653
Pradera,Lenga renoval,78.3772128923502
Pradera,Lenga adulto,72.4058718239683
Pradera,Coihue de magallanes renoval,52.7610770837778
Pradera,Coihue de magallanes adulto,53.8959911706203
Pradera,Roble hualo renoval,53.1838874553728
Pradera,Roble hualo adulto,56.1080829236912
Pradera,Roble-rauli-coihue renoval,53.4722506630453
Pradera,Roble-rauli-coihue adulto,59.5906515539529
Pradera,Coihue-rauli-tepa renoval,53.0015200860094
Pradera,Coihue-rauli-tepa adulto,56.0834210485908
Pradera,Esclerofilo renoval,56.3799705478735
Pradera,Esclerofilo adulto,61.4845316881634
Pradera,Siempreverde renoval,53.4494883642996
Pradera,Siempreverde adulto,56.611614604957
Pradera,Matorral arborescente,53.3718259775716
Pradera,Bosque mixto,59.5464458442108
Matorral-Pradera,Alerce renoval,81.0627048574533
Matorral-Pradera,Alerce adulto,81.0627048574533
Matorral-Pradera,Cipres de las guaitecas renoval,57.4223472800613
Matorral-Pradera,Cipres de las guaitecas adulto,81.0627048574533
Matorral-Pradera,Araucaria renoval,81.0627048574533
Matorral-Pradera,Araucaria adulto,81.0627048574533
Matorral-Pradera,Cipres de la cordillera renoval,57.0291883605857
Matorral-Pradera,Cipres de la cordillera adulto,58.3387260648684
Matorral-Pradera,Lenga renoval,81.0627048574533
Matorral-Pradera,Lenga adulto,75.3046140194791
Matorral-Pradera,Coihue de magallanes renoval,56.6736788383651
Matorral-Pradera,Coihue de magallanes adulto,57.7317285580241
Matorral-Pradera,Roble hualo renoval,57.0675082941209
Matorral-Pradera,Roble hualo adulto,59.8021035366283
Matorral-Pradera,Roble-rauli-coihue renoval,57.3363428290064
Matorral-Pradera,Roble-rauli-coihue adulto,63.0810619017977
Matorral-Pradera,Coihue-rauli-tepa renoval,56.8975900145292
Matorral-Pradera,Coihue-rauli-tepa adulto,59.7789656530399
Matorral-Pradera,Esclerofilo renoval,60.0572701428635
Matorral-Pradera,Esclerofilo adulto,64.8731242884646
Matorral-Pradera,Siempreverde renoval,57.3151151480934
Matorral-Pradera,Siempreverde adulto,60.2747835020084
Matorral-Pradera,Matorral arborescente,57.2426975798135
Matorral-Pradera,Bosque mixto,63.0393038564936
Matorral,Alerce renoval,81.0627048574533
Matorral,Alerce adulto,81.0627048574533
Matorral,Cipres de las guaitecas renoval,57.4223472800613
Matorral,Cipres de las guaitecas adulto,81.0627048574533
Matorral,Araucaria renoval,81.0627048574533
Matorral,Araucaria adulto,81.0627048574533
Matorral,Cipres de la cordillera renoval,57.0291883605857
Matorral,Cipres de la cordillera adulto,58.3387260648684
Matorral,Lenga renoval,81.0627048574533
Matorral,Lenga adulto,75.3046140194791
Matorral,Coihue de magallanes renoval,56.6736788383651
Matorral,Coihue de magallanes adulto,57.7317285580241
Matorral,Roble hualo renoval,57.0675082941209
Matorral,Roble hualo adulto,59.8021035366283
Matorral,Roble-rauli-coihue renoval,57.3363428290064
Matorral,Roble-rauli-coihue adulto,63.0810619017977
Matorral,Coihue-rauli-tepa renoval,56.8975900145292
Matorral,Coihue-rauli-tepa adulto,59.7789656530399
Matorral,Esclerofilo renoval,60.0572701428635
Matorral,Esclerofilo adulto,64.8731242884646
Matorral,Siempreverde renoval,57.3151151480934
Matorral,Siempreverde adulto,60.2747835020084
Matorral,Matorral arborescente,57.2426975798135
Matorral,Bosque mixto,63.0393038564936
Matorral con suculentas,Alerce renoval,81.0627048574533
Matorral con suculentas,Alerce adulto,81.0627048574533
Matorral con suculentas,Cipres de las guaitecas renoval,57.4223472800613
Matorral con suculentas,Cipres de las guaitecas adulto,81.0627048574533
Matorral con suculentas,Araucaria renoval,81.0627048574533
Matorral con suculentas,Araucaria adulto,81.0627048574533
Matorral con suculentas,Cipres de la cordillera renoval,57.0291883605857
Matorral con suculentas,Cipres de la cordillera adulto,58.3387260648684
Matorral con suculentas,Lenga renoval,81.0627048574533
Matorral con suculentas,Lenga adulto,75.3046140194791
Matorral con suculentas,Coihue de magallanes renoval,56.6736788383651
Matorral con suculentas,Coihue de magallanes adulto,57.7317285580241
Matorral con suculentas,Roble hualo renoval,57.0675082941209
Matorral con suculentas,Roble hualo adulto,59.8021035366283
Matorral con suculentas,Roble-rauli-coihue renoval,57.3363428290064
Matorral con suculentas,Roble-rauli-coihue adulto,63.0810619017977
Matorral con suculentas,Coihue-rauli-tepa renoval,56.8975900145292
Matorral con suculentas,Coihue-rauli-tepa adulto,59.7789656530399
Matorral con suculentas,Esclerofilo renoval,60.0572701428635
Matorral con suculentas,Esclerofilo adulto,64.8731242884646
Matorral con suculentas,Siempreverde renoval,57.3151151480934
Matorral con suculentas,Siempreverde adulto,60.2747835020084
Matorral con suculentas,Matorral arborescente,57.2426975798135
Matorral con suculentas,Bosque mixto,63.0393038564936
Suculentas,Alerce renoval,78.3772128923502
Suculentas,Alerce adulto,78.3772128923502
Suculentas,Cipres de las guaitecas renoval,53.5644597575497
Suculentas,Cipres de las guaitecas adulto,78.3772128923502
Suculentas,Araucaria renoval,78.3772128923502
Suculentas,Araucaria adulto,78.3772128923502
Suculentas,Cipres de la cordillera renoval,53.1427672127954
Suculentas,Cipres de la cordillera adulto,54.5456903965653
Suculentas,Lenga renoval,78.3772128923502
Suculentas,Lenga adulto,72.4058718239683
Suculentas,Coihue de magallanes renoval,52.7610770837778
Suculentas,Coihue de magallanes adulto,53.8959911706203
Suculentas,Roble hualo renoval,53.1838874553728
Suculentas,Roble hualo adulto,56.1080829236912
Suculentas,Roble-rauli-coihue renoval,53.4722506630453
Suculentas,Roble-rauli-coihue adulto,59.5906515539529
Suculentas,Coihue-rauli-tepa renoval,53.0015200860094
Suculentas,Coihue-rauli-tepa adulto,56.0834210485908
Suculentas,Esclerofilo renoval,56.3799705478735
Suculentas,Esclerofilo adulto,61.4845316881634
Suculentas,Siempreverde renoval,53.4494883642996
Suculentas,Siempreverde adulto,56.611614604957
Suculentas,Matorral arborescente,53.3718259775716
Suculentas,Bosque mixto,59.5464458442108
Plantación de arbustos,Alerce renoval,81.0627048574533
Plantación de arbustos,Alerce adulto,81.0627048574533
Plantación de arbustos,Cipres de las guaitecas renoval,57.4223472800613
Plantación de arbustos,Cipres de las guaitecas adulto,81.0627048574533
Plantación de arbustos,Araucaria renoval,81.0627048574533
Plantación de arbustos,Araucaria adulto,81.0627048574533
Plantación de arbustos,Cipres de la cordillera renoval,57.0291883605857
Plantación de arbustos,Cipres de la cordillera adulto,58.3387260648684
Plantación de arbustos,Lenga renoval,81.0627048574533
Plantación de arbustos,Lenga adulto,75.3046140194791
Plantación de arbustos,Coihue de magallanes renoval,56.6736788383651
Plantación de arbustos,Coihue de magallanes adulto,57.7317285580241
Plantación de arbustos,Roble hualo renoval,57.0675082941209
Plantación de arbustos,Roble hualo adulto,59.8021035366283
Plantación de arbustos,Roble-rauli-coihue renoval,57.3363428290064
Plantación de arbustos,Roble-rauli-coihue adulto,63.0810619017977
Plantación de arbustos,Coihue-rauli-tepa renoval,56.8975900145292
Plantación de arbustos,Coihue-rauli-tepa adulto,59.7789656530399
Plantación de arbustos,Esclerofilo renoval,60.0572701428635
Plantación de arbustos,Esclerofilo adulto,64.8731242884646
Plantación de arbustos,Siempreverde renoval,57.3151151480934
Plantación de arbustos,Siempreverde adulto,60.2747835020084
Plantación de arbustos,Matorral arborescente,57.2426975798135
Plantación de arbustos,Bosque mixto,63.0393038564936
Plantaciones,Alerce renoval,73.740576296857
Plantaciones,Alerce adulto,73.740576296857
Plantaciones,Cipres de las guaitecas renoval,46.5170553769043
Plantaciones,Cipres de las guaitecas adulto,73.740576296857
Plantaciones,Araucaria renoval,73.740576296857
Plantaciones,Araucaria adulto,73.740576296857
Plantaciones,Cipres de la cordillera renoval,46.0308461670343
Plantaciones,Cipres de la cordillera adulto,47.6436504967637
Plantaciones,Lenga renoval,73.740576296857
Plantaciones,Lenga adulto,67.3594489764334
Plantaciones,Coihue de magallanes renoval,45.5896517519071
Plantaciones,Coihue de magallanes adulto,46.8984323414269
Plantaciones,Roble hualo renoval,46.0783135182438
Plantaciones,Roble hualo adulto,49.4247110380185
Plantaciones,Roble-rauli-coihue renoval,46.4108466071388
Plantaciones,Roble-rauli-coihue adulto,53.3453919701078
Plantaciones,Coihue-rauli-tepa renoval,45.8677034878297
Plantaciones,Coihue-rauli-tepa adulto,49.3967125255653
Plantaciones,Esclerofilo renoval,49.7331496167184
Plantaciones,Esclerofilo adulto,55.4529776363054
Plantaciones,Siempreverde renoval,46.3846191988812
Plantaciones,Siempreverde adulto,49.9955998063829
Plantaciones,Matorral arborescente,46.2951066528634
Plantaciones,Bosque mixto,53.2960064591836
Humedales,Alerce renoval,73.3053380907052
Humedales,Alerce adulto,73.3053380907052
Humedales,Cipres de las guaitecas renoval,45.8239723391369
Humedales,Cipres de las guaitecas adulto,73.3053380907052
Humedales,Araucaria renoval,73.3053380907052
Humedales,Araucaria adulto,73.3053380907052
Humedales,Cipres de la cordillera renoval,45.3303297898127
Humedales,Cipres de la cordillera adulto,46.9671952820026
Humedales,Lenga renoval,73.3053380907052
Humedales,Lenga adulto,66.8826985580631
Humedales,Coihue de magallanes renoval,44.8822497972212
Humedales,Coihue de magallanes adulto,46.2110696271293
Humedales,Roble hualo renoval,45.3785299088189
Humedales,Roble hualo adulto,48.7729644494942
Humedales,Roble-rauli-coihue renoval,45.7161534120202
Humedales,Roble-rauli-coihue adulto,52.7421164198446
Humedales,Coihue-rauli-tepa renoval,45.1646567931991
Humedales,Coihue-rauli-tepa adulto,48.7445915803316
Humedales,Esclerofilo renoval,49.0854985795082
Humedales,Esclerofilo adulto,54.8728778973054
Humedales,Siempreverde renoval,45.6895272269829
Humedales,Siempreverde adulto,49.351393090773
Humedales,Matorral arborescente,45.5986501993206
Humedales,Bosque mixto,52.6921654944769
Sin vegetación,Alerce renoval,73.3053380907052
Sin vegetación,Alerce adulto,73.3053380907052
Sin vegetación,Cipres de las guaitecas renoval,45.8239723391369
Sin vegetación,Cipres de las guaitecas adulto,73.3053380907052
Sin vegetación,Araucaria renoval,73.3053380907052
Sin vegetación,Araucaria adulto,73.3053380907052
Sin vegetación,Cipres de la cordillera renoval,45.3303297898127
Sin vegetación,Cipres de la cordillera adulto,46.9671952820026
Sin vegetación,Lenga renoval,73.3053380907052
Sin vegetación,Lenga adulto,66.8826985580631
Sin vegetación,Coihue de magallanes renoval,44.8822497972212
Sin vegetación,Coihue de magallanes adulto,46.2110696271293
Sin vegetación,Roble hualo renoval,45.3785299088189
Sin vegetación,Roble hualo adulto,48.7729644494942
Sin vegetación,Roble-rauli-coihue renoval,45.7161534120202
Sin vegetación,Roble-rauli-coihue adulto,52.7421164198446
Sin vegetación,Coihue-rauli-tepa renoval,45.1646567931991
Sin vegetación,Coihue-rauli-tepa adulto,48.7445915803316
Sin vegetación,Esclerofilo renoval,49.0854985795082
Sin vegetación,Esclerofilo adulto,54.8728778973054
Sin vegetación,Siempreverde renoval,45.6895272269829
Sin vegetación,Siempreverde adulto,49.351393090773
Sin vegetación,Matorral arborescente,45.5986501993206
Sin vegetación,Bosque mixto,52.6921654944769
Nieves,Alerce renoval,73.3053380907052
Nieves,Alerce adulto,73.3053380907052
Nieves,Cipres de las guaitecas renoval,45.8239723391369
Nieves,Cipres de las guaitecas adulto,73.3053380907052
Nieves,Araucaria renoval,73.3053380907052
Nieves,Araucaria adulto,73.3053380907052
Nieves,Cipres de la cordillera renoval,45.3303297898127
Nieves,Cipres de la cordillera adulto,46.9671952820026
Nieves,Lenga renoval,73.3053380907052
Nieves,Lenga adulto,66.8826985580631
Nieves,Coihue de magallanes renoval,44.8822497972212
Nieves,Coihue de magallanes adulto,46.2110696271293
Nieves,Roble hualo renoval,45.3785299088189
Nieves,Roble hualo adulto,48.7729644494942
Nieves,Roble-rauli-coihue renoval,45.7161534120202
Nieves,Roble-rauli-coihue adulto,52.7421164198446
Nieves,Coihue-rauli-tepa renoval,45.1646567931991
Nieves,Coihue-rauli-tepa adulto,48.7445915803316
Nieves,Esclerofilo renoval,49.0854985795082
Nieves,Esclerofilo adulto,54.8728778973054
Nieves,Siempreverde renoval,45.6895272269829
Nieves,Siempreverde adulto,49.351393090773
Nieves,Matorral arborescente,45.5986501993206
Nieves,Bosque mixto,52.6921654944769
Cuerpos de agua,Alerce renoval,73.3053380907052
Cuerpos de agua,Alerce adulto,73.3053380907052
Cuerpos de agua,Cipres de las guaitecas renoval,45.8239723391369
Cuerpos de agua,Cipres de las guaitecas adulto,73.3053380907052
Cuerpos de agua,Araucaria renoval,73.3053380907052
Cuerpos de agua,Araucaria adulto,73.3053380907052
Cuerpos de agua,Cipres de la cordillera renoval,45.3303297898127
Cuerpos de agua,Cipres de la cordillera adulto,46.9671952820026
Cuerpos de agua,Lenga renoval,73.3053380907052
Cuerpos de agua,Lenga adulto,66.8826985580631
Cuerpos de agua,Coihue de magallanes renoval,44.8822497972212
Cuerpos de agua,Coihue de magallanes adulto,46.2110696271293
Cuerpos de agua,Roble hualo renoval,45.3785299088189
Cuerpos de agua,Roble hualo adulto,48.7729644494942
Cuerpos de agua,Roble-rauli-coihue renoval,45.7161534120202
Cuerpos de agua,Roble-rauli-coihue adulto,52.7421164198446
Cuerpos de agua,Coihue-rauli-tepa renoval,45.1646567931991
Cuerpos de agua,Coihue-rauli-tepa adulto,48.7445915803316
Cuerpos de agua,Esclerofilo renoval,49.0854985795082
Cuerpos de agua,Esclerofilo adulto,54.8728778973054
Cuerpos de agua,Siempreverde renoval,45.6895272269829
Cuerpos de agua,Siempreverde adulto,49.351393090773
Cuerpos de agua,Matorral arborescente,45.5986501993206
Cuerpos de agua,Bosque mixto,52.6921654944769
